text,intent
I want to go to london,Booking
I need a train tomorrow,Booking
next week I need to go to norwich,Booking
do you have any tickets for scotland,Booking
im traveling to liverpool tomorrow,Booking
book me a ticket,Booking
I want to book a train next week,Booking
find me a ticket for bournemouth,Booking
can I book a ticket for essex,Booking
train to london,Booking
train ticket to manchester,Booking
Hi,Greeting
Hello,Greeting
Hiya,Greeting
hey,Greeting
whats up,Greeting
hows it going,Greeting
Hola,Greeting
Sup,Greeting
yes,Affirmative
thats correct,Affirmative
correct,Affirmative
thats what i mean,Affirmative
yeah,Affirmative
ok,Affirmative
sure,Affirmative
sure thing,Affirmative
thats right,Affirmative
right,Affirmative
perfect,Affirmative
thats what i want,Affirmative
thats it,Affirmative
no,Negative
nope,Negative
thats not it,Negative
incorrect,Negative
not right,Negative
thats not right,Negative
not what i meant,Negative
thats incorrect,Negative
thats all,Termination
good bye,Termination
im done,Termination
end,Termination
terminate,Termination
bye bye,Termination
cya,Termination
see you later,Termination
ciao,Termination
hello,Greeting
good day,Greeting
good afternoon,Greeting
good morning,Greeting
good evening,Greeting
hi,Greeting
hey,Greeting
Hi how are you,Greeting
i need some help,Greeting
im looking for a ticket,Booking
ticket to norwich from cornwall,Booking
what trains can i get form Manchester,Booking
are there are any trains to Essex,Booking
incorrect,Negative
nope,Negative
no,Negative
not right,Negative
thats not it,Negative
try again,Negative